\relax 
\catcode `:\active 
\catcode `;\active 
\catcode `!\active 
\catcode `?\active 
\select@language{french}
\@writefile{toc}{\select@language{french}}
\@writefile{lof}{\select@language{french}}
\@writefile{lot}{\select@language{french}}
\@writefile{toc}{\contentsline {paragraph}{Notice}{1}}
\@writefile{toc}{\contentsline {paragraph}{1 - Travail r\IeC {\'e}alis\IeC {\'e}:}{1}}
\@writefile{toc}{\contentsline {paragraph}{2 - Evaluation de alpha-beta s\IeC {\'e}quentiel}{2}}
\@writefile{toc}{\contentsline {paragraph}{3 - Parall\IeC {\'e}lisation}{2}}
\@writefile{toc}{\contentsline {paragraph}{4 - Optimisations}{3}}
\@writefile{toc}{\contentsline {paragraph}{5 - Auto-analyse}{3}}
\@writefile{toc}{\contentsline {paragraph}{6 - Commentaires libres}{3}}
